{
  "$schema" : "http://json-schema.org/draft-04/schema#",
  "title" : "Meeting",
  "type" : "object",
  "additionalProperties" : false,
  "properties" : {
    "id" : {
      "oneOf" : [ {
        "type" : "null",
        "title" : "Not included"
      }, {
        "type" : "integer"
      } ]
    },
    "date" : {
      "oneOf" : [ {
        "type" : "null",
        "title" : "Not included"
      }, {
        "type" : "string",
        "title" : "BST timezone",
        "format" : "date-time"
      } ]
    },
    "category" : {
      "oneOf" : [ {
        "type" : "null",
        "title" : "Not included"
      }, {
        "type" : "string"
      } ]
    },
    "code" : {
      "oneOf" : [ {
        "type" : "null",
        "title" : "Not included"
      }, {
        "type" : "string"
      } ]
    },
    "country" : {
      "oneOf" : [ {
        "type" : "null",
        "title" : "Not included"
      }, {
        "type" : "string"
      } ]
    },
    "lastUpdated" : {
      "oneOf" : [ {
        "type" : "null",
        "title" : "Not included"
      }, {
        "type" : "integer"
      } ]
    },
    "shortName" : {
      "oneOf" : [ {
        "type" : "null",
        "title" : "Not included"
      }, {
        "type" : "string"
      } ]
    },
    "venue" : {
      "oneOf" : [ {
        "type" : "null",
        "title" : "Not included"
      }, {
        "type" : "string"
      } ]
    },
    "startTime" : {
      "oneOf" : [ {
        "type" : "null",
        "title" : "Not included"
      }, {
        "type" : "string",
        "format" : "time"
      } ],
      "title" : "BST timezone"
    },
    "endTime" : {
      "oneOf" : [ {
        "type" : "null",
        "title" : "Not included"
      }, {
        "type" : "string",
        "format" : "time"
      } ],
      "title" : "BST timezone"
    },
    "numberOfEvents" : {
      "oneOf" : [ {
        "type" : "null",
        "title" : "Not included"
      }, {
        "type" : "integer"
      } ]
    },
    "subCode" : {
      "oneOf" : [ {
        "type" : "null",
        "title" : "Not included"
      }, {
        "type" : "string"
      } ]
    },
    "weather" : {
      "oneOf" : [ {
        "type" : "null",
        "title" : "Not included"
      }, {
        "type" : "string"
      } ]
    },
    "going" : {
      "oneOf" : [ {
        "type" : "null",
        "title" : "Not included"
      }, {
        "type" : "string"
      } ]
    },
    "status" : {
      "oneOf" : [ {
        "type" : "null",
        "title" : "Not included"
      }, {
        "type" : "string"
      } ]
    },
    "priority" : {
      "oneOf" : [ {
        "type" : "null",
        "title" : "Not included"
      }, {
        "type" : "string"
      } ]
    },
    "sportCode" : {
      "oneOf" : [ {
        "type" : "null",
        "title" : "Not included"
      }, {
        "type" : "string"
      } ]
    },
    "source" : {
      "oneOf" : [ {
        "type" : "null",
        "title" : "Not included"
      }, {
        "type" : "string"
      } ]
    },
    "route" : {
      "oneOf" : [ {
        "type" : "null",
        "title" : "Not included"
      }, {
        "type" : "string"
      } ]
    },
    "meetingBets" : {
      "oneOf" : [ {
        "type" : "null",
        "title" : "Not included"
      }, {
        "type" : "array",
        "items" : {
          "$ref" : "#/definitions/MeetingBet"
        }
      } ]
    },
    "raceSummaries" : {
      "oneOf" : [ {
        "type" : "null",
        "title" : "Not included"
      }, {
        "type" : "array",
        "items" : {
          "$ref" : "#/definitions/RaceSummary"
        }
      } ]
    }
  },
  "definitions" : {
    "MeetingBet" : {
      "type" : "object",
      "additionalProperties" : false,
      "properties" : {
        "id" : {
          "oneOf" : [ {
            "type" : "null",
            "title" : "Not included"
          }, {
            "type" : "integer"
          } ]
        },
        "payout" : {
          "oneOf" : [ {
            "type" : "null",
            "title" : "Not included"
          }, {
            "type" : "number"
          } ]
        },
        "poolTotal" : {
          "oneOf" : [ {
            "type" : "null",
            "title" : "Not included"
          }, {
            "type" : "number"
          } ]
        },
        "betType" : {
          "oneOf" : [ {
            "type" : "null",
            "title" : "Not included"
          }, {
            "type" : "string"
          } ]
        },
        "instance" : {
          "oneOf" : [ {
            "type" : "null",
            "title" : "Not included"
          }, {
            "type" : "integer"
          } ]
        },
        "races" : {
          "oneOf" : [ {
            "type" : "null",
            "title" : "Not included"
          }, {
            "type" : "string"
          } ]
        }
      }
    },
    "RaceSummary" : {
      "type" : "object",
      "additionalProperties" : false,
      "properties" : {
        "eventId" : {
          "oneOf" : [ {
            "type" : "null",
            "title" : "Not included"
          }, {
            "type" : "integer"
          } ]
        },
        "raceName" : {
          "oneOf" : [ {
            "type" : "null",
            "title" : "Not included"
          }, {
            "type" : "string"
          } ]
        },
        "time" : {
          "oneOf" : [ {
            "type" : "null",
            "title" : "Not included"
          }, {
            "type" : "string",
            "format" : "time"
          } ]
        },
        "offTime" : {
          "oneOf" : [ {
            "type" : "null",
            "title" : "Not included"
          }, {
            "type" : "string",
            "format" : "time"
          } ]
        },
        "raceNumber" : {
          "oneOf" : [ {
            "type" : "null",
            "title" : "Not included"
          }, {
            "type" : "integer"
          } ]
        }
      }
    }
  }
}
